IS-680 FINAL FALL’21 V_SAI_PRANAV
…
## Rows: 2181 Columns: 7

## -- Column specification --------------------------------------------------------
## Delimiter: ","
## chr (3): name, country, parent
## dbl (4): total, dems, repubs, year

## 
## i Use `spec()` to retrieve the full column specification for this data.
## i Specify the column types or set `show_col_types = FALSE` to quiet this message.

pac

## # A tibble: 2,181 x 7
##    name                                  country parent total  dems repubs  year
##    <chr>                                 <chr>   <chr>  <dbl> <dbl>  <dbl> <dbl>
##  1 ABB Daimler-Benz Transportation       Germany Daiml~ 15775 10775   5000  1998
##  2 ABB Group                             Switze~ Asea ~ 48500 19750  28750  1998
##  3 AE Staley Manufacturing (Tate & Lyle) UK      Tate ~ 30500  3500  27000  1998
##  4 AEGON USA (AEGON USA)                 Nether~ Aegon~ 41700 10100  31600  1998
##  5 Alcatel USA                           France  Alcat~ 31000  8500  22500  1998
##  6 Allied Domecq Spirits & Wine          UK      Allie~ 39500 11000  28500  1998
##  7 APL Ltd                               Singap~ Neptu~ 41983 18060  23923  1998
##  8 Aqua-Chem Inc                         France  Lyonn~ 11800  1200  10600  1998
##  9 Ares-Serono Inc                       Switze~ Seron~  6357  5857    500  1998
## 10 Bacardi Corp                          UK      Bacar~     0     0      0  1998
## # ... with 2,171 more rows
…
pac %>%
  group_by(dems) %>%
  summarize(n = n())

## # A tibble: 651 x 2
##     dems     n
##    <dbl> <int>
##  1 -4500     1
##  2 -4000     1
##  3 -3000     1
##  4 -1500     1
##  5 -1000     1
##  6  -500     3
##  7  -250     1
##  8     0   390
##  9     1     1
## 10   200     1
## # ... with 641 more rows
…
## # A tibble: 1 x 2
##   mean_tot  st_dev
##      <dbl>   <dbl>
## 1   80956. 138217.

Here in above chunk mean will give us the average value in the ‘total’ column and standard deviation will tell us if the data points are near to value 138217.

C

pac_rpt <- pac_no_na %>%
            group_by(country) %>%
            summarize(total_contri = sum(total), mean_contri = mean(total))
pac_rpt

## # A tibble: 30 x 3
##    country   total_contri mean_contri
##    <chr>            <dbl>       <dbl>
##  1 Australia      1287113      28603.
##  2 Belgium        6233566     138524.
##  3 Bermuda        1165132     166447.
##  4 Brazil          810250      47662.
##  5 Canada         6644438      31640.
##  6 China           472029      36310.
##  7 Denmark        3082519     102751.
##  8 Finland          34200      34200 
##  9 France        10425215      47822.
## 10 Germany       23434340     110539.
## # ... with 20 more rows
…
Question 4 A

plt <- pac_no_na %>%
            select(year, dems, repubs)
plt

## # A tibble: 2,179 x 3
##     year  dems repubs
##    <dbl> <dbl>  <dbl>
##  1  1998 10775   5000
##  2  1998 19750  28750
##  3  1998  3500  27000
##  4  1998 10100  31600
##  5  1998  8500  22500
##  6  1998 11000  28500
##  7  1998 18060  23923
##  8  1998  1200  10600
##  9  1998  5857    500
## 10  1998     0      0
## # ... with 2,169 more rows
…
